<?xml version="1.0" encoding="UTF-8" standalone="no"?>
<!-- Created with Inkscape (http://www.inkscape.org/) -->

<svg
   xmlns:dc="http://purl.org/dc/elements/1.1/"
   xmlns:cc="http://creativecommons.org/ns#"
   xmlns:rdf="http://www.w3.org/1999/02/22-rdf-syntax-ns#"
   xmlns:svg="http://www.w3.org/2000/svg"
   xmlns="http://www.w3.org/2000/svg"
   xmlns:sodipodi="http://sodipodi.sourceforge.net/DTD/sodipodi-0.dtd"
   xmlns:inkscape="http://www.inkscape.org/namespaces/inkscape"
   width="41.5mm"
   height="93.500008mm"
   viewBox="0 0 147.04724 331.29924"
   id="svg2"
   version="1.1"
   inkscape:version="0.91 r13725"
   sodipodi:docname="mirror.svg">
  <title
     id="title3338">JanteStroemSpeil</title>
  <defs
     id="defs4" />
  <sodipodi:namedview
     id="base"
     pagecolor="#ffffff"
     bordercolor="#666666"
     borderopacity="1.0"
     inkscape:pageopacity="0.0"
     inkscape:pageshadow="2"
     inkscape:zoom="2.5475458"
     inkscape:cx="73.523622"
     inkscape:cy="165.64962"
     inkscape:document-units="px"
     inkscape:current-layer="layer1"
     showgrid="true"
     inkscape:window-width="1920"
     inkscape:window-height="1004"
     inkscape:window-x="0"
     inkscape:window-y="24"
     inkscape:window-maximized="1"
     objecttolerance="20"
     inkscape:snap-text-baseline="true"
     inkscape:snap-grids="true"
     inkscape:snap-object-midpoints="true"
     fit-margin-top="0"
     fit-margin-left="0"
     fit-margin-right="0"
     fit-margin-bottom="0">
    <inkscape:grid
       type="xygrid"
       id="grid3336"
       units="mm"
       spacingx="7.0866143"
       spacingy="7.0866142"
       empspacing="4"
       dotted="false"
       originx="76.181102"
       originy="439.37013" />
  </sodipodi:namedview>
  <metadata
     id="metadata7">
    <rdf:RDF>
      <cc:Work
         rdf:about="">
        <dc:format>image/svg+xml</dc:format>
        <dc:type
           rdf:resource="http://purl.org/dc/dcmitype/StillImage" />
        <dc:title>JanteStroemSpeil</dc:title>
        <cc:license
           rdf:resource="http://creativecommons.org/licenses/by-nc-nd/3.0/" />
        <dc:date>2019MAR06</dc:date>
        <dc:creator>
          <cc:Agent>
            <dc:title>Christoph Maier</dc:title>
          </cc:Agent>
        </dc:creator>
        <dc:rights>
          <cc:Agent>
            <dc:title>CC-Attribution-NonCommercial-NoDerivs</dc:title>
          </cc:Agent>
        </dc:rights>
        <dc:publisher>
          <cc:Agent>
            <dc:title>Christoph Maier</dc:title>
          </cc:Agent>
        </dc:publisher>
      </cc:Work>
      <cc:License
         rdf:about="http://creativecommons.org/licenses/by-nc-nd/3.0/">
        <cc:permits
           rdf:resource="http://creativecommons.org/ns#Reproduction" />
        <cc:permits
           rdf:resource="http://creativecommons.org/ns#Distribution" />
        <cc:requires
           rdf:resource="http://creativecommons.org/ns#Notice" />
        <cc:requires
           rdf:resource="http://creativecommons.org/ns#Attribution" />
        <cc:prohibits
           rdf:resource="http://creativecommons.org/ns#CommercialUse" />
      </cc:License>
    </rdf:RDF>
  </metadata>
  <g
     inkscape:label="Layer 1"
     inkscape:groupmode="layer"
     id="layer1"
     transform="translate(76.181103,-1160.4331)">
    <rect
       style="fill:#ffff00;fill-opacity:1;fill-rule:evenodd;stroke:none;stroke-width:0.1;stroke-linecap:round;stroke-miterlimit:1.5;stroke-dasharray:none;stroke-dashoffset:0;stroke-opacity:1"
       id="rect3359-6"
       width="326.13538"
       height="28.189819"
       x="1165.5969"
       y="14.329865"
       ry="7.60852e-08"
       transform="matrix(0,1,-1,0,0,0)" />
    <g
       id="g4167-7"
       transform="matrix(0,1,-1,0,-31.8898,1024.0157)">
      <rect
         ry="7.60852e-08"
         y="-10.629924"
         x="148.81889"
         height="14.173228"
         width="14.173228"
         id="rect3361-5"
         style="fill:none;fill-opacity:1;fill-rule:evenodd;stroke:#000000;stroke-width:1.77165353;stroke-linecap:round;stroke-miterlimit:3.17000008;stroke-dasharray:none;stroke-dashoffset:0;stroke-opacity:1" />
      <path
         inkscape:connector-curvature="0"
         id="path4163-3"
         d="M 148.8189,-10.62993 162.99213,3.5433"
         style="fill:none;fill-rule:evenodd;stroke:#000000;stroke-width:1.77165353;stroke-linecap:butt;stroke-linejoin:miter;stroke-miterlimit:3.17000008;stroke-dasharray:none;stroke-opacity:1" />
      <path
         inkscape:connector-curvature="0"
         id="path4165-5"
         d="M 162.99213,-10.62993 148.8189,3.5433"
         style="fill:none;fill-rule:evenodd;stroke:#000000;stroke-width:1.77165353;stroke-linecap:butt;stroke-linejoin:miter;stroke-miterlimit:3.17000008;stroke-dasharray:none;stroke-opacity:1" />
    </g>
    <rect
       style="fill:#ffff00;fill-opacity:1;fill-rule:evenodd;stroke:none;stroke-width:0.1;stroke-linecap:round;stroke-miterlimit:1.5;stroke-dasharray:none;stroke-dashoffset:0;stroke-opacity:1"
       id="rect3359-6-6"
       width="325.94482"
       height="28.385914"
       x="1165.7875"
       y="14.133771"
       ry="7.60852e-08"
       transform="matrix(0,1,1,0,0,0)" />
    <g
       id="g4167-7-7"
       transform="matrix(0,1,1,0,31.6938,1024.2062)">
      <rect
         ry="7.60852e-08"
         y="-10.629924"
         x="148.81889"
         height="14.173228"
         width="14.173228"
         id="rect3361-5-5"
         style="fill:none;fill-opacity:1;fill-rule:evenodd;stroke:#000000;stroke-width:1.77165353;stroke-linecap:round;stroke-miterlimit:3.17000008;stroke-dasharray:none;stroke-dashoffset:0;stroke-opacity:1" />
      <path
         inkscape:connector-curvature="0"
         id="path4163-3-3"
         d="M 148.8189,-10.62993 162.99213,3.5433"
         style="fill:none;fill-rule:evenodd;stroke:#000000;stroke-width:1.77165353;stroke-linecap:butt;stroke-linejoin:miter;stroke-miterlimit:3.17000008;stroke-dasharray:none;stroke-opacity:1" />
      <path
         inkscape:connector-curvature="0"
         id="path4165-5-5"
         d="M 162.99213,-10.62993 148.8189,3.5433"
         style="fill:none;fill-rule:evenodd;stroke:#000000;stroke-width:1.77165353;stroke-linecap:butt;stroke-linejoin:miter;stroke-miterlimit:3.17000008;stroke-dasharray:none;stroke-opacity:1" />
    </g>
    <rect
       style="fill:#ffff00;fill-opacity:1;fill-rule:evenodd;stroke:none;stroke-width:0.1;stroke-linecap:round;stroke-miterlimit:1.5;stroke-dasharray:none;stroke-dashoffset:0;stroke-opacity:1"
       id="rect3359-6-6-1"
       width="85.039345"
       height="28.346453"
       x="-42.519657"
       y="1463.3859"
       ry="7.60852e-08"
       transform="scale(-1,1)" />
    <g
       id="g4167-7-7-2"
       transform="matrix(0,1,1,0,3.5433097,1321.6536)">
      <rect
         ry="7.60852e-08"
         y="-10.629924"
         x="148.81889"
         height="14.173228"
         width="14.173228"
         id="rect3361-5-5-7"
         style="fill:none;fill-opacity:1;fill-rule:evenodd;stroke:#000000;stroke-width:1.77165353;stroke-linecap:round;stroke-miterlimit:3.17000008;stroke-dasharray:none;stroke-dashoffset:0;stroke-opacity:1" />
      <path
         inkscape:connector-curvature="0"
         id="path4163-3-3-0"
         d="M 148.8189,-10.62993 162.99213,3.5433"
         style="fill:none;fill-rule:evenodd;stroke:#000000;stroke-width:1.77165353;stroke-linecap:butt;stroke-linejoin:miter;stroke-miterlimit:3.17000008;stroke-dasharray:none;stroke-opacity:1" />
      <path
         inkscape:connector-curvature="0"
         id="path4165-5-5-9"
         d="M 162.99213,-10.62993 148.8189,3.5433"
         style="fill:none;fill-rule:evenodd;stroke:#000000;stroke-width:1.77165353;stroke-linecap:butt;stroke-linejoin:miter;stroke-miterlimit:3.17000008;stroke-dasharray:none;stroke-opacity:1" />
    </g>
    <rect
       style="fill:#ff0000;fill-opacity:0.83137255;fill-rule:evenodd;stroke:none;stroke-width:10.62992096;stroke-linecap:round;stroke-miterlimit:3.17000008;stroke-dasharray:none;stroke-dashoffset:0;stroke-opacity:0.78431373"
       id="rect4346"
       width="141.73228"
       height="255.11815"
       x="-70.866142"
       y="1194.0945"
       ry="7.60852e-08" />
    <g
       id="g4167-7-7-2-6"
       transform="matrix(0,1,1,0,-53.149598,1052.3622)">
      <rect
         ry="7.60852e-08"
         y="-10.629924"
         x="148.81889"
         height="14.173228"
         width="14.173228"
         id="rect3361-5-5-7-0"
         style="fill:none;fill-opacity:1;fill-rule:evenodd;stroke:#000000;stroke-width:1.77165353;stroke-linecap:round;stroke-miterlimit:3.17000008;stroke-dasharray:none;stroke-dashoffset:0;stroke-opacity:1" />
      <path
         inkscape:connector-curvature="0"
         id="path4163-3-3-0-6"
         d="M 148.8189,-10.62993 162.99213,3.5433"
         style="fill:none;fill-rule:evenodd;stroke:#000000;stroke-width:1.77165353;stroke-linecap:butt;stroke-linejoin:miter;stroke-miterlimit:3.17000008;stroke-dasharray:none;stroke-opacity:1" />
      <path
         inkscape:connector-curvature="0"
         id="path4165-5-5-9-2"
         d="M 162.99213,-10.62993 148.8189,3.5433"
         style="fill:none;fill-rule:evenodd;stroke:#000000;stroke-width:1.77165353;stroke-linecap:butt;stroke-linejoin:miter;stroke-miterlimit:3.17000008;stroke-dasharray:none;stroke-opacity:1" />
    </g>
    <rect
       style="fill:#0000ff;fill-opacity:0.75294118;fill-rule:evenodd;stroke:#ffffff;stroke-width:10.62992096;stroke-linecap:round;stroke-miterlimit:3.17000008;stroke-dasharray:none;stroke-dashoffset:0;stroke-opacity:0.78431373"
       id="rect4402-6"
       width="56.692913"
       height="56.692902"
       x="-70.866142"
       y="1165.748"
       ry="7.60852e-08" />
  </g>
</svg>
